Chapter 2 grouped vertical bar with standard error | step2
…
            step2

Chapter 2 grouped vertical bar with standard error

data(diamonds)
means <- diamonds %>%
  group_by(cut, color) %>% 
  summarise(mean = mean(price), se = sd(price)/sqrt(n()))

## `summarise()` has grouped output by 'cut'. You can override using the `.groups`
## argument.

means

## # A tibble: 35 × 4
## # Groups:   cut [5]
##    cut   color  mean    se
##    <ord> <ord> <dbl> <dbl>
##  1 Fair  D     4291.  257.
##  2 Fair  E     3682.  199.
##  3 Fair  F     3827.  182.
##  4 Fair  G     4239.  204.
##  5 Fair  H     5136.  223.
##  6 Fair  I     4685.  282.
##  7 Fair  J     4976.  371.
##  8 Good  D     3405.  123.
##  9 Good  E     3424.  109.
## 10 Good  F     3496.  106.
## # … with 25 more rows
…
